{
  "images" : [
    {
      "filename" : "istockphoto-157772536-170667a.jpg",
      "idiom" : "universal",
      "scale" : "1x"
    },
    {
      "filename" : "istockphoto-157772536-170667a@2x.jpg",
      "idiom" : "universal",
      "scale" : "2x"
    },
    {
      "filename" : "istockphoto-157772536-170667a@3x.jpg",
      "idiom" : "universal",
      "scale" : "3x"
    }
  ],
  "info" : {
    "author" : "xcode",
    "version" : 1
  }
}
