{
  "images" : [
    {
      "filename" : "simple-bicycle-icon-black-lines-bike-drawing-vector-24577341.jpg",
      "idiom" : "universal",
      "scale" : "1x"
    },
    {
      "filename" : "simple-bicycle-icon-black-lines-bike-drawing-vector-24577341@2x.jpg",
      "idiom" : "universal",
      "scale" : "2x"
    },
    {
      "filename" : "simple-bicycle-icon-black-lines-bike-drawing-vector-24577341@3x.jpg",
      "idiom" : "universal",
      "scale" : "3x"
    }
  ],
  "info" : {
    "author" : "xcode",
    "version" : 1
  }
}
